Content-Type: text/x-zim-wiki
Wiki-Format: zim 0.4
Creation-Date: 2017-04-20T13:24:44+03:00

<?php

class News extends CI_Controller
{

	function __construct()
	{

		parent::__construct();
		$segs = $this->uri->uri_to_assoc();
		$act = isset($segs["act"]) ? $segs["act"] : $this->uri->segment(2);
	   $act = $act != '' ? $act : $this->uri->segment(1);
		$com_acts = array(
			"news",
			"ajax_get_more_news",
			"ajax_get_more_blog",
			"ajax_get_more_article",
			"rss",
			"search",
			"news_more",
			"blog_more",
			"artilce_more",
			"news_ajax_latest",
			"get_latest_news",
			"news_ajax", // added by BHI 04-10-2016
			"loadmore" ,
			"get_ajax_latest_news",
			""
			// added by BHI 06-10-2016
		);
		$user_login = $this->session->userdata('USER');
		if (empty($user_login)) {
			check_cookie();
			$user_login = $this->session->userdata('USER');
		}
		$this->user_id = $user_login['ID'];
		if (isset($act)) {
			if (in_array($act, $com_acts)) {
               
			} else {
				if (!isset($user_login) || $user_login['ID'] == "") {
					 current_url(); 
					 $this->session->set_userdata('USER_REFERRAL', current_url());
					/*SEO friendly URLs by Gauttam Kevadia*/
					#redirect('/users');
				   redirect('users/login');
				}
			}
		}
		$this->recs_per_page = 20;
		$this->recs_per_category = 4;
		$this->recs_per_blog = 12;
		$this->recs_per_article = 6;
		$this->load->model('news_model', 'newsobj');
		$this->load->model("users_model", "usersobj");
	}

	function index()
	{

		$segs = $this->uri->uri_to_assoc();
		if (!isset($segs["act"])) {
			$this->list_all();
		} else if ($segs["act"] == 'news_detail') {
			$this->news_detail($segs["id"]);
		} else if ($segs["act"] == 'add') {
			$this->add();
		} else if ($segs["act"] == 'save') {
			$this->save();
		} else if ($segs["act"] == 'edit') {
			$this->add($segs["id"]);
		} else if ($segs["act"] == 'delete') {
			$this->delete($segs["id"]);
		} else if ($segs["act"] == 'del_image') {
			$this->del_image($segs['id'], 1);
		} else if ($segs["act"] == 'search') {
			$this->list_all($this->input->post('search'));
		}

	}

	function add($id = '')
	{
		$news->user_id = '';
		$news->id = '';
		$news->news_title = '';
		$news->news_category = '';
		$news->image = '';
		$news->start_date = date('Y-m-d');
		$news->end_date = date('Y-m-d');
		$news->description = '';
		$news->category = '';
		$news->source_of_news = '';
		$data['news_res'] = $news;
		if ($id) {
			$whr['id'] = $id;
			$news_res = $this->newsobj->get_news('', '', $whr);
			if (!empty($news_res)) {
				if ($news_res[0]->user_id == $this->user_id) {
					$id = $news_res[0]->id;
					$data['news_res'] = $news_res[0];
				} else {
					$id = '';
				}
			}

		}
		$data['id'] = $id;
		$data['action'] = 'news/index/act/save';
		$data['page_title'] = 'User:News';
		//loading categories
		$this->load->model('news_categorys_model', 'news_catobj');
		$news_cat_res = $this->news_catobj->load_news_categories();
		//$categories[''] = '-----Select Category------';
		if ($news_cat_res) {
			foreach ($news_cat_res as $category) {
				$categories[$category->id] = $category->news_category;
			}
		}
		$data['categories'] = $categories;
		/*
			Here we need to check if the current 
			user is a partner and is approved!
			so that he can have the show news option!
		*/
		$this->load->library('fckeditor');
		$this->load->view('cleantek_new_header', $data);
		$this->load->view("news_save", $data);
		$this->load->view('cleantek_new_footer');

	}

	function save()
	{
		$id = $this->input->post('id');
		if ($id) {
			$whr['id'] = $id;
			$news_res = $this->newsobj->get_news('', '', $whr);
			if (!empty($news_res)) {
				if ($news_res[0]->user_id == $this->user_id) {
					$id = $news_res[0]->id;
				} else {
					echo 'Invalid user login';
					exit;
				}
			}
		}
		$this->load->library('form_validation');
		$this->form_validation->set_rules('news_title', 'News Title', 'trim||xss_clean|required');
		$this->form_validation->set_rules('image', 'Image', 'trim|xss_clean|callback_check_image');
		//$this->form_validation->set_rules('start_date', 'Start Date', 'trim|xss_clean|required');
		//$this->form_validation->set_rules('end_date', 'End Date', 'trim|xss_clean|required|callback_check_date');
		$this->form_validation->set_rules('description', 'description', 'trim|required');
		$this->form_validation->set_rules('news_category', 'News Category', 'trim|xss_clean|required');
		if ($this->form_validation->run() == FALSE) {

			$this->session->set_userdata('VALIDATION_ERRORS', validation_errors());

			$this->add($id);
		} else {
			/* if($_FILES["image"]["name"]!="" && $_FILES["image"]["name"]!=$this->input->post('image_old'))
			unlink('images/categories/'.$this->input->post('image_old')); */
			$data['news_title'] = $this->input->post('news_title');

			if ($_FILES["image"]["name"]) {
				$microtime= microtime(true);
				$image_name = str_replace(".", "_", $microtime) . $_FILES["image"]["name"];
				move_uploaded_file($_FILES["image"]["tmp_name"],"images/news/".$image_name);
				$config['image_library'] = 'gd2';
				$config['source_image'] = $_FILES["image"]["tmp_name"];
				$config['maintain_ratio'] = TRUE;
				$config['width'] = 300;
				$config['height'] = 300;
				$config['new_image'] = "images/news/" . $image_name;
				$this->load->library('image_lib', $config);
				$this->image_lib->resize();
				$data['image'] = $image_name;
				if ($id)
					unlink('images/news/' . $this->input->post('image_old'));
			}
			$dat = $this->input->post('start_date') . " " . date('H:i:s');
			$data['start_date'] = gmdate('Y-m-d H:i:s', strtotime($dat));
			//$data['end_date']		= $this->input->post('end_date')." 23:59:59";
			$data['end_date'] = date('Y-m-d', strtotime("+1 year")) . " 23:59:59";
			$data['description'] = $this->input->post('description');
			$data['news_category'] = $this->input->post('news_category');
			$user_login = $this->session->userdata('USER');
			$data['source_of_news'] = $this->input->post('source_of_news');
			$data['repost_script'] = '';
			$data['repost_image'] = '';
			$data['is_repost'] = 0;
			$data['partner_id'] = 0; // ???
			$data['id_from_source'] = 0;
			$data['external_link'] = '';
			$data['scrapped_date'] = date("Y-m-d");
			$data['make_public'] = 0;
			$data['types'] = '';
			$data['company_id'] = 0;
			if ( !empty($image_name) ) {
				$data['image'] = $image_name;
			}

			if (!empty($user_login))
				$data['posted_by'] = $user_login['ID'];
			else {
				/*SEO friendly URLs by Gauttam Kevadia*/
				#redirect('/users');
				redirect('users/login');
			}

			$data['published'] = 1;
			if ($id) {
				$this->newsobj->update_news($data, $id);
				$error = '<p class="succ">News updated successfully</p>';
			} else {

				$inserted_news_id= $this->newsobj->insert_news($data);
				$this->load->model('logs_model', 'logsobj');
				$logs['user_id'] = $this->user_id;
				$logs['logs'] = 'Added news to the platform';
				$logs['module'] = 'news';
				$logs['item_id'] = $inserted_news_id;
				$logs['item_name'] = $data['news_title'];
				$logs['profile_image'] = '';
				$logs['status'] = '';
				$this->logsobj->insert_logs($logs);

				$error = '<p class="succ" style="font-size: 0.7em;padding-left: 20%;">News successfully added</p>';
			}
			$this->session->set_userdata('VALIDATION_ERRORS', $error);
			redirect('news');


		}
	}

	function check_image($field)
	{

//        echo '<pre>$_FILES::'.print_r($_FILES,true).'</pre>';
//        die("-1 XXZ");
		if (!$_FILES["image"]["name"] == '') {

			if (($_FILES["image"]["type"] == "image/gif") || ($_FILES["image"]["type"] == "image/jpeg") || ($_FILES["image"]["type"] == "image/pjpeg") || ($_FILES["image"]["type"] == "image/png")) {
				if ($_FILES["image"]["error"] > 0) {
					$this->form_validation->set_message('check_image', 'Image upload error');
					return false;
				} else {
					return true;
				}
			} else {
				$this->form_validation->set_message('check_image', 'Invalid image type!....Please upload any jpg/jpeg/gif/png file');
				return false;
			}
		} else {
			return true;
		}
	}

	function check_date($field)
	{
		$start_date = $this->input->post('start_date');
		$end_date = $this->input->post('end_date');

		if ($end_date < $start_date) {
			$this->form_validation->set_message('check_date', 'End date should be greater than start date');
			return false;
		} else {
			return true;
		}

	}

	function list_all($search = '')
	{
		$this->load->model('news_model', 'newsobj');
		$this->load->model('Users_model', 'usersobj');
		$this->load->model('conference_model', 'conferenceobj');
		$this->load->model('article_model', 'artobj');
		$where['search'] = $search;
		$where['group_by'] = 'news_category.news_category';
		$news_categories = $this->newsobj->get_today_news('', '0', $where);
		$news = array();
		foreach ($news_categories as $category) {
			$whe['category'] = $category->category_id;
			$whe['search'] = $search;
			$news[$category->category_id] = $this->newsobj->get_today_news($this->recs_per_category, '0', $whe);
		}

		// Added by vikas on 12-oct-2016
		$data['get_cat'] = $this->newsobj->get_cat();
		//print_r($data['get_cat']); exit;
		//$data['get_cat'] = $get_cat;

		if (!empty ($data['get_cat'][0]['id'])) {
			$cat_id = $data['get_cat'][0]['id'];
			//echo $cat_id;
			$data['get_cat_news1'] = $this->newsobj->get_cat_news($cat_id);

		}
		if (!empty ($data['get_cat'][1]['id'])) {
			$cat_id = $data['get_cat'][1]['id'];
			//echo $cat_id;
			$data['get_cat_news2'] = $this->newsobj->get_cat_news($cat_id);
		}
		if (!empty ($data['get_cat'][2]['id'])) {
			$cat_id = $data['get_cat'][2]['id'];
			//echo $cat_id;
			$data['get_cat_news3'] = $this->newsobj->get_cat_news($cat_id);
		}

		$data['get_latest_events'] = $this->newsobj->get_latest_events();

		$data['get_major_reports'] = $this->artobj->get_major_reports();
		$data['get_advertise'] = $this->newsobj->get_advertise();
		//Added by vikas on 12-oct-2016

		$news_count = array();
		foreach ($news_categories as $category) {
			$whe['category'] = $category->category_id;
			$whe['search'] = $search;
			$news_count[$category->category_id] = count($this->newsobj->get_today_news('', '0', $whe));
		}
		$i = 0;
		$where1['user_id'] = $this->user_id;
		$news_result = '';
		foreach ($news as $key => $val) {
			foreach ($val as $key2 => $row) {
				$where1['type'] = 'news';
				$where1['solution_id'] = $row->news_id;
				$res_like = $this->usersobj->check_user_like($where1);
				$res_fav = $this->usersobj->check_user_favourite($where1);
				if ($res_like)
					$news[$key][$key2]->like_unlike = 1;
				else
					$news[$key][$key2]->like_unlike = 0;
				if ($res_fav)
					$news[$key][$key2]->favourite = 1;
				else
					$news[$key][$key2]->favourite = 0;
				$i++;
			}
		}
		$data['news_count'] = $news_count;
		$data['recs_per_category'] = $this->recs_per_category;
		$data['news_res'] = $news;
		$this->load->model('blog_model', 'blogobj');
		$blog_where['approved'] = 1;
		$blog_where['search'] = $search;
		$blog_res = $this->blogobj->get_blog($this->recs_per_blog, '0', $blog_where);
		$i = 0;
		$where2['user_id'] = $this->user_id;
		$blog_result = '';
		foreach ($blog_res as $row) {
			$blog_result[$i] = $row;
			$where2['type'] = 'blog';
			$where2['solution_id'] = $row->id;
			$res_like = $this->usersobj->check_user_like($where2);
			$res_fav = $this->usersobj->check_user_favourite($where2);
			if ($res_like)
				$blog_result[$i]->like_unlike = 1;
			else
				$blog_result[$i]->like_unlike = 0;
			if ($res_fav)
				$blog_result[$i]->favourite = 1;
			else
				$blog_result[$i]->favourite = 0;
			$i++;
		}
		$data['blog_res'] = $blog_result;
		$data['recs_per_blog'] = $this->recs_per_blog;
		$data['total_blog_res'] = count($this->blogobj->get_blog('', '', $blog_where));

		$this->load->model('article_model', 'artobj');
		$article_where['approved'] = 1;
		$article_where['search'] = $search;
		$article_res = $this->artobj->get_article($this->recs_per_article, '0', $article_where);
		$i = 0;
		$where3['user_id'] = $this->user_id;
		$article_result = '';
		foreach ($article_res as $row) {
			$article_result[$i] = $row;
			$where3['type'] = 'article';
			$where3['solution_id'] = $row->id;
			$res_like = $this->usersobj->check_user_like($where3);
			$res_fav = $this->usersobj->check_user_favourite($where3);
			if ($res_like)
				$article_result[$i]->like_unlike = 1;
			else
				$article_result[$i]->like_unlike = 0;
			if ($res_fav)
				$article_result[$i]->favourite = 1;
			else
				$article_result[$i]->favourite = 0;
			$i++;
		}
		$data['article_res'] = $article_result;
		$data['recs_per_article'] = $this->recs_per_article;
		$data['total_article_res'] = count($this->artobj->get_article('', '', $article_where));
		$data['page_title'] = 'User:News List';
		$data['show_menu'] = 1;
		$data['action'] = '';
		$data['base_url'] = $this->config->item('base_url');
		$data['user_id'] = $this->user_id;

		//loading categories
		$this->load->model('news_categorys_model', 'news_catobj');
		$news_cat_res = $this->news_catobj->load_news_categories();
		$categories[''] = '-----Select Category------';
		if ($news_cat_res) {
			foreach ($news_cat_res as $category) {
				$categories[$category->id] = $category->news_category;
			}
		}
		$data['categories'] = $categories;
		// loadin rss
		//$data['rss_res']	=$this->rss();
		$data['page_title'] = '';
		$data['page_description'] = 'Cleantech also publishes news regarding the ways in which energy can be used efficiently and how to reduce emission of green house gases. Get updated with healthy news on latest technology improvements with us.';
		$data['page_keyword'] = '';


		/* Added by BHI on 04-10-2016 */

		$where5['featured'] = 1;
		$getall_news = $this->newsobj->get_news('', '', $where5, "news.id", "desc");
		$data["featured_news_count"] = count($getall_news);
		$getone_news = $this->newsobj->get_news(1, '', $where5, "news.id", "desc");
		$newsone = array();
		
		foreach ($getone_news as $news) {
			$newsone['id'] = $news->id;
			$newsone['title'] = $news->news_title;
			$newsone['author'] = $news->first_name;
			$newsone['image'] = $news->image;
			if (isset($newsone['image']) && (trim($newsone['image']) != "") && file_exists('images/news/'.$newsone['image'])) {
			  $newsone['image'] = $news->image;
			} else {
				$newsone['image'] = "";
			}

			$newsone['date'] = $news->start_date;

			$ts = time() - strtotime(str_replace("-", "/", $news->start_date));
			if ($ts > 31536000) $val = round($ts / 31536000, 0) . ' year';
			else if ($ts > 2419200) $val = round($ts / 2419200, 0) . ' month';
			else if ($ts > 604800) $val = round($ts / 604800, 0) . ' week';
			else if ($ts > 86400) $val = round($ts / 86400, 0) . ' day';
			else if ($ts > 3600) $val = round($ts / 3600, 0) . ' hour';
			else if ($ts > 60) $val = round($ts / 60, 0) . ' minute';
			else $val = round($ts) . ' second';

			if ($val < 0) {
				$val = '0 seconds';
			}

			if ($val > 1) $val .= 's';
			$hours = $val . ' ago';

			$newsone['hours'] = $hours;


		}

		$where6['featured'] = 1;

		$getall_event = $this->conferenceobj->get_conference('', '', $where6, "conference.conference_id", "asc");
		$data["featured_event_count"] = count($getall_event);
		$getone_event = $this->conferenceobj->get_conference(1, '', $where6, "conference.conference_id", "asc");
		$eventone = array();
		foreach ($getone_event as $event) {
			$eventone['id'] = $event->conference_id;
			$eventone['title'] = $event->conference_title;
			$eventone['author'] = $event->first_name;
			$eventone['image'] = $event->conference_image;
			if (isset($eventone['image']) && (trim($eventone['image']) != "") && file_exists('/images/conference/' . $eventone['image'])) {
				$eventone['image'] = $event->conference_image;
			} else {
				$eventone['image'] = "";
			}
			$eventone['date'] = $event->conference_start_date;
			$ts = time() - strtotime(str_replace("-", "/", $event->conference_start_date));
			if ($ts > 31536000) $val = round($ts / 31536000, 0) . ' year';
			else if ($ts > 2419200) $val = round($ts / 2419200, 0) . ' month';
			else if ($ts > 604800) $val = round($ts / 604800, 0) . ' week';
			else if ($ts > 86400) $val = round($ts / 86400, 0) . ' day';
			else if ($ts > 3600) $val = round($ts / 3600, 0) . ' hour';
			else if ($ts > 60) $val = round($ts / 60, 0) . ' minute';
			else $val = round($ts) . ' second';

			if ($val < 0) {
				$val = '0 seconds';
			}

			if ($val > 1) $val .= 's';
			$hours = $val . ' ago';

			$eventone['hours'] = $hours;
		}
		$data["newsone"] = $newsone;
		$data["eventone"] = $eventone;
		/* Added by BHI on 04-10-2016 */

		/* Added by BHI on 05-10-2016 */
		//$whereIm['image'] = 1;
		$getlatest_news = $this->newsobj->get_news(10, '', '', "news.id", "asc");
		$data['getlatest_news'] = $getlatest_news;
		/* Added by BHI on 05-10-2016 */

		$data['page'] = 'news';
		$data['title'] = 'News';
		
		$this->load->library('fckeditor');
		$this->load->view('frontend/header', $data);
		$this->load->view("news_list", $data);
		$this->load->view('frontend/footer');

	}

	//Added by bhi 04-10-2016

	function news_ajax()
	{

		$this->load->model('news_model', 'newsobj');
		$this->load->model('Users_model', 'usersobj');
		$this->load->model('conference_model', 'conferenceobj');


		/* Added by BHI on 04-10-2016 */

		$limit = 1;
		$start1 = (isset($_GET['start1']) ? $_GET['start1'] : ""); // Modified by BHI on 07-10-2016

		$where5['featured'] = 1;
		$getall_news = $this->newsobj->get_news('', '', $where5, "news.id", "asc");// Modified by BHI on 07-10-2016
		$data["featured_news_count"] = count($getall_news);
		$getone_news = $this->newsobj->get_news(1, $start1, $where5, "news.id", "asc");
		$newsone = array();
		foreach ($getone_news as $news) {
			$newsone['id'] = $news->id;
			$newsone['title'] = $news->news_title;
			$newsone['author'] = ($news->first_name == null ? '' : $news->first_name);


			if (file_exists('images/news/'. $newsone['image'])) {
				$newsone['image'] = $news->image;
			} else {
				$newsone['image'] = "";
			}
			$newsone['date'] = $news->start_date;

			$ts = time() - strtotime(str_replace("-", "/", $news->start_date));
			if ($ts > 31536000) $val = round($ts / 31536000, 0) . ' year';
			else if ($ts > 2419200) $val = round($ts / 2419200, 0) . ' month';
			else if ($ts > 604800) $val = round($ts / 604800, 0) . ' week';
			else if ($ts > 86400) $val = round($ts / 86400, 0) . ' day';
			else if ($ts > 3600) $val = round($ts / 3600, 0) . ' hour';
			else if ($ts > 60) $val = round($ts / 60, 0) . ' minute';
			else $val = round($ts) . ' second';

			if ($val < 0) {
				$val = '0 seconds';
			}

			if ($val > 1) $val .= 's';
			$hours = $val . ' ago';

			$newsone['hours'] = $hours;

		}


		$start2 = (isset($_GET['start2']) ? $_GET['start2'] : ""); // Modified by BHI on 07-10-2016

		$where6['featured'] = 1;
		$where6['year'] = date("Y");
		$getall_event = $this->conferenceobj->get_conference('', '', $where6, "conference.conference_id", "desc"); // Modified by BHI on 07-10-2016
		$data["featured_event_count"] = count($getall_event);
		$getone_event = $this->conferenceobj->get_conference(1, $start2, $where6, "conference.conference_id", "desc");
		$eventone1 = array();
		foreach ($getone_event as $event) {
			$eventone1['id'] = $event->conference_id;
			$eventone1['title'] = $event->conference_title;
			$eventone1['author'] = ($event->first_name == 'null' ? '' : $event->first_name);
			if (file_exists('/images/conference/'.$event->conference_image)) {
				$eventone1['image'] = $event->conference_image;
			} else {
				$eventone1['image'] = "";
			}


			$eventone1['date'] = $event->conference_start_date;


			$ts = time() - strtotime(str_replace("-", "/", $event->conference_start_date));
			if ($ts > 31536000) $val = round($ts / 31536000, 0) . ' year';
			else if ($ts > 2419200) $val = round($ts / 2419200, 0) . ' month';
			else if ($ts > 604800) $val = round($ts / 604800, 0) . ' week';
			else if ($ts > 86400) $val = round($ts / 86400, 0) . ' day';
			else if ($ts > 3600) $val = round($ts / 3600, 0) . ' hour';
			else if ($ts > 60) $val = round($ts / 60, 0) . ' minute';
			else $val = round($ts) . ' second';

			if ($val < 0) {
				$val = '0 seconds';
			}

			if ($val > 1) $val .= 's';
			$hours = $val . ' ago';

			$eventone1['hours'] = $hours;
		}


		$data["newsone"] = $newsone;
		$data["eventone"] = $eventone1;


		/* Added by BHI on 04-10-2016 */
		echo json_encode(array('data' => $data));
		exit;


	}

	function get_latest_news($newsCount = 4, $descLen = 100)
	{
		if ($_POST['newsCount']) {
			$newsCount = $_POST['newsCount'];
		}
		if ($_POST['descLen']) {
			$descLen = $_POST['descLen'];
		}
		$this->load->helper('text_helper');
		$this->load->model('news_model', 'objNews');
		$news = $this->objNews->get_today_news($newsCount, 0);
		//print_r($news);

		$arrNews = array();
		//foreach ($news as $key => $val) {
		for ($i = 0; $i < count($news); $i++) {
			// Get 2 sentences as short content for the news
			$newsContent = getSentences($news[$i]->description, 2);

			$arrNews[] = array(
				'title' => $news[$i]->news_title,
				'desc' => $newsContent,
				'date' => $news[$i]->modified_date,
				'url' => $this->config->item('base_url') . 'news/index/act/news_detail/id/' . $news[$i]->news_id
			);
		}

		echo json_encode($arrNews);
	}
  function get_ajax_latest_news($newsCount = 4, $descLen = 100)
	{
		 $start = 0;
		$limit = 12;
		if (isset($_GET['start'])) {
			$start = $_GET['start'];
		}
        
		$this->load->helper('text_helper');
		$this->load->model('news_model', 'objNews');
		$get_latest_news = $this->objNews->get_today_news(6, $start);
		//print_r($news);

		$arrNews = array();
		//foreach ($news as $key => $val) {

			// Get 2 sentences as short content for the news
         
		  $l =1 ;$kl=count($get_latest_news);
		 foreach($get_latest_news as $v) {
			// print_r($v);
						 //	$newsContent = getSentences($v->description, 2);
								if($l==1)
								{
									
					 $new .='<div class="news-img">
                  
						<p>'. $v->news_title .'</p>
					 </div> <ul class="news-event">';
					
								}else { 
							
                    
						$new .='<li><a href="'.  base_url().'news/index/act/news_detail/id/'. $v->news_id.'" style="display: inline-block;" ><strong style="font-family: \'Roboto\', sans-serif;font-weight: 400;font-size: 11px;padding-left:0px;">'. $v->news_title.'</a></strong>-'. substr(strip_tags($v->description),0,40).'...</li>';
					
								}
							   if($kl==$l)
							   {								   
                  
					
					 $new .='</ul>';
				
							   }
					 $l++;
						   }
   

		echo $new;
	}
	function news_detail($id = '')
	{
		$this->load->model('news_model', 'newsobj');
		$this->load->model("users_model", "usersobj");
		$data['solution_id'] = $id;
		$data['type'] = 'news';
		$user_login = $this->session->userdata('USER');
		$data['user_id'] = $user_login['ID'];
		$whr['id'] = $id;
		$data['news_res'] = $this->newsobj->get_news(1, 0, $whr);
		$where['id'] = $id;
		$data['rel_news_res'] = $this->newsobj->get_related_news(10, 0, $id);
		$result = $this->usersobj->check_user_favourite($data);
		if ($result)
			$data['favourite'] = 1;
		$res = $this->usersobj->check_user_like($data);
		if ($res)
			$data['like'] = 1;
		$data['count'] = $this->usersobj->count_user_like($data);

		if (isset($data['news_res'][0]) && $data['news_res'][0]->published == 1) {

			$data['base_url'] = $this->config->item('base_url');
			$this->load->view('cleantek_new_header', $data);
			$this->load->view("news_detail", $data);
			$this->load->view('cleantek_new_footer');
		}


	}

	function user_like()
	{
		$this->load->model("users_model", "usersobj");
		$data['solution_id'] = $_POST['id'];
		$user_login = $this->session->userdata('USER');
		$data['user_id'] = $user_login['ID'];
		if (isset($_POST['type']) && $_POST['type'] != "")
			$data['type'] = $_POST['type'];
		//$res=$this->usersobj->add_user_like($data);
		$result = $this->usersobj->check_user_like($data);
		//print_r(
		if ($result) {
			$this->usersobj->delete_user_like($data);
			$count = $this->usersobj->count_user_like($data);
			echo $count;
		} else {
			$res = $this->usersobj->add_user_like($data);
			$count = $this->usersobj->count_user_like($data);
			echo $count;
		}
	}

	function rss()
	{

		// load library
		$this->load->model('rss_model', 'rssobj');
		$rss = array();
		$rss_links = $this->rssobj->get();
		if ($rss_links) {
			foreach ($rss_links as $res) {
				$this->load->library('rssparser');
				$this->rssparser->set_feed_url($res->link); // get feed
				$this->rssparser->set_cache_life(30); // Set cache life time in minutes
				$rss = array_merge($rss, $this->rssparser->getFeed(10));
			}
		}
		return $rss;
		/*$data['rss_res']				=	$rss;
		$data['base_url']   			= 	$this->config->item('base_url');
		$this->load->view('header', $data);
		$this->load->view("rss_list",$data);
		$this->load->view('footer'); */

	}

	/* function news_forward(){
	$receiver   			=  $_POST['forward_email'];
	$news_id   				=  $_POST['news_id'];
	$type   				=  $_POST['type'];
	$this->load->model('Users_model', 'usersobj');
	$user_login = $this->session->userdata('USER');
	$result=$this->usersobj->get($user_login['ID']);

	if($result) {
	if($type=="news")
	$url=base_url()."news/index/act/news_detail/id/".$news_id;
	else if($type=="blog")
	$url=base_url()."blog/index/act/blog_detail/id/".$news_id;
	else if($type=="article")
	$url=base_url()."blog/index/act/blog_detail/id/".$news_id;

	$message		=	"Hi ".$url;
	$this->email->clear();
	$this->email->from($result->email,$result->first_name." ".$result->last_name);
	$this->email->to($receiver);
	$this->email->subject('Forward');
	$this->email->message($message);
	if($this->email->send())
	echo 1;
	else
	echo 0;

	}
	} */

	function ajax_get_more_news($offset, $bro_gmt_diff_mins, $category)
	{

		$this->load->model('news_model', 'newsobj');
		$this->load->model("users_model", "usersobj");
		$where['category'] = $category;
		$where['search'] = isset($_POST['search']) ? $_POST['search'] : "";
		/* Comment added by Gauttam remove pagination kind of control */
		//$news_res          = $this->newsobj->get_today_news($this->recs_per_category, $offset, $where);
		$news_res = $this->newsobj->get_today_news('', $offset, $where);
		if ($news_res) {
			$i = 0;
			$where1['user_id'] = $this->user_id;
			foreach ($news_res as $row) {
				$news_result[$i] = $row;
				$where1['type'] = 'news';
				$where1['solution_id'] = $row->news_id;
				$res_like = $this->usersobj->check_user_like($where1);
				$res_fav = $this->usersobj->check_user_favourite($where1);
				if ($res_like)
					$news_result[$i]->like_unlike = 1;
				else
					$news_result[$i]->like_unlike = 0;
				if ($res_fav)
					$news_result[$i]->favourite = 1;
				else
					$news_result[$i]->favourite = 0;
				$i++;
			}
			foreach ($news_result as $news) {
				$prof_pic = $news->profile_picture ? $news->profile_picture : "default_profile_image.gif";
				if ($news->posted_by == '-1') {
					$posted_by = '<img src="' . base_url() . 'images/cleanTekLogo3.png"  class="pro post_img"  >
								<p class="postBy">Posted by<br> <a href="#">CleanTekMarket</a></p>';
				} else {
					$posted_by = '<img src="' . base_url() . 'images/profile_images/' . $prof_pic . '"  class="pro post_img" >
								<p class="postBy">Posted by <br><a href="' . base_url() . 'users/index/act/another_prof/id/' . $news->id . '">' . ucfirst(strtolower($news->first_name)) . "  " . ucfirst(strtolower($news->last_name)) . '</a></p>';
				}
				$ts = time() - strtotime(str_replace("-", "/", $news->start_date));
				if ($ts > 31536000)
					$val = round($ts / 31536000, 0) . ' year';
				else if ($ts > 2419200)
					$val = round($ts / 2419200, 0) . ' month';
				else if ($ts > 604800)
					$val = round($ts / 604800, 0) . ' week';
				else if ($ts > 86400)
					$val = round($ts / 86400, 0) . ' day';
				else if ($ts > 3600)
					$val = round($ts / 3600, 0) . ' hour';
				else if ($ts > 60)
					$val = round($ts / 60, 0) . ' minute';
				else
					$val = round($ts) . ' second';
				if ($val > 1)
					$val .= 's';
				$time = $val . ' ago';
				/* $item	= "";
				if(isset($news->id))
				$item = $news->id;
				else
				$item = 0;

				$item .= " "."news";
				if(isset($news->like_unlike) && $news->like_unlike=="1")
				$like_unlike = "Unlike";
				else
				$like_unlike = "Like"; */
				$item = "";
				if (isset($news->news_id))
					$item = $news->news_id;
				else
					$item = 0;

				$item .= " " . "news";
				$style = "";
				if (isset($news->favourite) && $news->favourite == "1") {
					$class = "favorite";
				} else {
					$class = "";
				}


				$item_id = isset($news->id) ? $news->id : '';
				$item_type = 'news';
				$s = substr(strip_tags($news->description), 0, 300);
				$description = '<p>' . substr($s, 0, strrpos($s, " ")) . "....</p>";

				$url_news = base_url() . 'news/index/act/news_detail/id/' . $news->news_id;
				$addthis_sh = addthis_share($news->news_title, 'Shared a news', 'list', $url_news);
//				echo '<div rel="' . $news->news_id . '" class="newsPrev">
//				  <h5 class="heading55 redirect ">' . $news->news_title . '</h5>
//				  <div class="time2">
//				   <p>' . $time . '</p>
//				  <ul class="social55">
//							 <li>
//								<a value="' . $item . '" id="user_favourite" class="user_favourite" href="javascript:void(0)"><input type="button" class=" ' . $class . ' star5"></a>
//							</li>
//							<li>' . $addthis_sh . '
//							</li>
//						  </ul>
//				  </div>
//				 </div>';
				echo '<div class="row gutters list-row newslist">
				  <div class="col span_2 list-thumpnail"></div>
					<div class="col span_10 list-row-details " rel ="' . $news->news_id . '">
					  <span class="list-row-title redirect">' . $news->news_title . '</span><br />
					  <div class="time2">
						<p>' . $time . '</p>
						<ul class="social55">
						  <li>
						   <a value="' . $item . '" id="user_favourite" class="user_favourite" href="javascript:void(0)"><input type="button" class=" ' . $class . ' star5"></a>
						  </li>
						  <li>' . $addthis_sh . '</li>
						</ul>
					  </div>
					</div>
				</div>';


			}

		}

	}


	function ajax_get_more_blog($offset, $bro_gmt_diff_mins)
	{
		$this->load->model('blog_model', 'blogobj');
		$this->load->model("users_model", "usersobj");
		$blog_where['approved'] = 1;
		$blog_where['search'] = isset($_POST['search']) ? $_POST['search'] : "";
		/* Comment added by Gauttam remove pagination kind of control */
		//$blog_res               = $this->blogobj->get_blog($this->recs_per_blog, $offset, $blog_where);
		$blog_res = $this->blogobj->get_blog('', $offset, $blog_where);
		if ($blog_res) {
			$i = 0;
			$where2['user_id'] = $this->user_id;
			foreach ($blog_res as $row) {
				$blog_result[$i] = $row;
				$where2['type'] = 'blog';
				$where2['solution_id'] = $row->id;
				$res_like = $this->usersobj->check_user_like($where2);
				$res_fav = $this->usersobj->check_user_favourite($where2);
				if ($res_like)
					$blog_result[$i]->like_unlike = 1;
				else
					$blog_result[$i]->like_unlike = 0;
				if ($res_fav)
					$blog_result[$i]->favourite = 1;
				else
					$blog_result[$i]->favourite = 0;
				$i++;
			}
			foreach ($blog_result as $blog) {
				$prof_pic = $blog->profile_picture ? $blog->profile_picture : "default_profile_image.gif";
				if ($blog->user_id == '-1') {
					$posted_by = '<img src="' . base_url() . 'images/cleanTekLogo3.png"  class="pro post_img"  >
								<p class="postBy">Posted by<br> <a href="#">CleanTekMarket</a></p>';
				} else {
					$posted_by = '<img src="' . base_url() . 'images/profile_images/' . $prof_pic . '"  class="pro post_img" >
								<p class="postBy">Posted by <br><a href="' . base_url() . 'users/index/act/another_prof/id/' . $blog->user_id . '">' . ucfirst(strtolower($blog->first_name)) . "  " . ucfirst(strtolower($blog->last_name)) . '</a></p>';
				}
				$ts = time() - strtotime(str_replace("-", "/", $blog->added_date));
				if ($ts > 31536000)
					$val = round($ts / 31536000, 0) . ' year';
				else if ($ts > 2419200)
					$val = round($ts / 2419200, 0) . ' month';
				else if ($ts > 604800)
					$val = round($ts / 604800, 0) . ' week';
				else if ($ts > 86400)
					$val = round($ts / 86400, 0) . ' day';
				else if ($ts > 3600)
					$val = round($ts / 3600, 0) . ' hour';
				else if ($ts > 60)
					$val = round($ts / 60, 0) . ' minute';
				else
					$val = round($ts) . ' second';
				if ($val > 1)
					$val .= 's';
				$time = $val . ' ago';
				$item = "";
				if (isset($blog->id))
					$item = $blog->id;
				else
					$item = 0;

				$item .= " " . "blog";
				$style = "";
				if (isset($news->favourite) && $news->favourite == "1") {
					$class = "favorite";
				} else {
					$class = "";
				}


				$item_id = isset($blog->id) ? $blog->id : '';
				$item_type = 'blog';
				/* $user_login                                                     = $this->session->userdata('USER');
				if (isset($user_login) && $user_login['ID'] != "") {
				$user_name= $user_login['FIRST_NAME']." ".$user_login['LAST_NAME'];
				} else
				{
				$user_name=0;
				} */
				/* if($blog->allow_comments==1){
				if($user_name){
				$comment= '<div class="comment"><p>'.$user_name.'</p>'.form_open('comments/index/act/save',array('class'=>'form_comment')). form_hidden(array('blog_id' 	=> $blog->id)). form_hidden(array('type' 	=> 'blog')).'<textarea name="comment" class="expand25-200 comment" placeholder="Write a comment..."></textarea>'.form_close().'</div>	';
				}else{
				$comment= '<div class="comment">'.form_open('comments/index/act/save',array('class'=>'form_comment')). form_hidden(array('blog_id'  	=> $blog->id)). form_hidden(array('type' 	=> 'blog')).'<textarea name="comment" class="expand25-200 comment" placeholder="Write a comment..."></textarea>'.form_close().'</div>	';
				}
				}else
				$comment='';	 */
				$item = "";
				if (isset($blog->id))
					$item = $blog->id;
				else
					$item = 0;

				$item .= " " . "blog";

				/* $s = substr(strip_tags($blog->message), 0, 300);
				$message='<p>'.substr($s, 0, strrpos($s, " "))."....</p>" ;	*/
				$url_blog = base_url() . 'blog/index/act/blog_detail/id/' . $blog->id;
				$addthis_sh = addthis_share($blog->title, 'Shared a blog', 'list', $url_blog);

//				echo '<div rel="' . $blog->id . '" class="newsPrev">
//						  <h5 class="heading55 redirect_blog">' . $blog->title . '</h5>
//						  <div class="time2">
//						   <p>' . $time . '</p>
//							<ul class="social55">
//										<li>
//											<a value="' . $item . '" id="user_favourite" class="user_favourite" href="javascript:void(0)"><input type="button" class=" ' . $class . ' star5"></a>
//										</li>
//										
//										<li>' . $addthis_sh . '</li>
//									</ul>
//						  </div>
//						 </div>';	
				echo '<div class="row gutters list-row newslist">
				  <div class="col span_2 list-thumpnail"></div>
					<div class="col span_10 list-row-details " rel ="' . $blog->id . '">
					  <span class="list-row-title redirect">' . $blog->title . '</span><br />
					  <div class="time2">
						<p>' . $time . '</p>
						<ul class="social55">
						  <li>
						   <a value="' . $item . '" id="user_favourite" class="user_favourite" href="javascript:void(0)"><input type="button" class=" ' . $class . ' star5"></a>
						  </li>
						  <li>' . $addthis_sh . '</li>
						</ul>
					  </div>
					</div>
				</div>';

			}

		}

	}

	/*
	function del_image($id = '')
	{
		$this->load->model('news_model', 'newsobj');
		$whr['id'] = $id;
		$res       = $this->newsobj->get_news(1, 0, $whr);
		if ($res[0]->user_id == $this->user_id) {
			if ($res[0]->image != "")
				unlink('images/news/' . $res[0]->image);
			$data['image'] = '';
			$this->newsobj->update_news($data, $id);
		}
		$this->add($id);
	}
	 */
	function ajax_get_more_article($offset, $bro_gmt_diff_mins)
	{
		$position = 50;
		$this->load->model('article_model', 'artobj');
		$article_where['search'] = isset($_POST['search']) ? $_POST['search'] : "";
		$article_where['approved'] = 1;
		/* Comment added by Gauttam remove pagination kind of control */
		//$article_res               = $this->artobj->get_article($this->recs_per_article, $offset, $article_where);
		$article_res = $this->artobj->get_article('', $offset, $article_where);
		if ($article_res) {
			$i = 0;
			$where3['user_id'] = $this->user_id;
			foreach ($article_res as $row) {
				$article_result[$i] = $row;
				$where3['type'] = 'article';
				$where3['solution_id'] = $row->id;
				$res_like = $this->usersobj->check_user_like($where3);
				$res_fav = $this->usersobj->check_user_favourite($where3);
				if ($res_like)
					$article_result[$i]->like_unlike = 1;
				else
					$article_result[$i]->like_unlike = 0;
				if ($res_fav)
					$article_result[$i]->favourite = 1;
				else
					$article_result[$i]->favourite = 0;
				$i++;
			}
			foreach ($article_result as $article) {
				/* $prof_pic = $article->profile_picture ? $article->profile_picture : "default_profile_image.gif";
				if ($article->user_id == '-1') {
					$posted_by = '<img src="' . base_url() . 'images/cleanTekLogo3.png"  class="pro post_img"  >
								<p class="postBy">Posted by<br> <a href="#">CleanTekMarket</a></p>';
				} else {
					$posted_by = '<img src="' . base_url() . 'images/profile_images/' . $prof_pic . '"  class="pro post_img" >
								<p class="postBy">Posted by <br><a href="' . base_url() . 'users/index/act/another_prof/id/' . $article->user_id . '">' . ucfirst(strtolower($article->first_name)) . "  " . ucfirst(strtolower($article->last_name)) . '</a></p>';
				} */
				$ts = time() - strtotime(str_replace("-", "/", $article->added_date));
				if ($ts > 31536000)
					$val = round($ts / 31536000, 0) . ' year';
				else if ($ts > 2419200)
					$val = round($ts / 2419200, 0) . ' month';
				else if ($ts > 604800)
					$val = round($ts / 604800, 0) . ' week';
				else if ($ts > 86400)
					$val = round($ts / 86400, 0) . ' day';
				else if ($ts > 3600)
					$val = round($ts / 3600, 0) . ' hour';
				else if ($ts > 60)
					$val = round($ts / 60, 0) . ' minute';
				else
					$val = round($ts) . ' second';
				if ($val > 1)
					$val .= 's';
				$time = $val . ' ago';
				$item = "";
				if (isset($article->id))
					$item = $article->id;
				else
					$item = 0;

				$item .= " " . "article";
				$style = "";


				/*$item_id   = isset($article->id) ? $article->id : '';
				$item_type = 'article';
				 if (isset($user_login) && $user_login['ID'] != "") {
					$user_name = $user_login['FIRST_NAME'] . " " . $user_login['LAST_NAME'];
				} else {
					$user_name = 0;
				}
				if ($article->allow_comments == 1) {
					if ($user_name) {
						$comment = '<div class="comment"><p>' . $user_name . '</p>' . form_open('comments/index/act/save', array(
							'class' => 'form_comment'
						)) . form_hidden(array(
							'blog_id' => $article->id
						)) . form_hidden(array(
							'type' => 'article'
						)) . '<textarea name="comment" class="expand25-200 comment" placeholder="Write a comment..."></textarea>' . form_close() . '</div>	';
					} else {
						$comment = '<div class="comment">' . form_open('comments/index/act/save', array(
							'class' => 'form_comment'
						)) . form_hidden(array(
							'blog_id' => $article->id
						)) . form_hidden(array(
							'type' => 'article'
						)) . '<textarea name="comment" class="expand25-200 comment" placeholder="Write a comment..."></textarea>' . form_close() . '</div>	';
					}
				} else
					$comment = '';
					$s          = substr(strip_tags($article->message), 0, 300);
				$message    = '<p>' . substr($s, 0, strrpos($s, " ")) . "....</p>"; */
				$url_blog = base_url() . 'blog/index/act/blog_detail/id/' . $article->id;
				$addthis_sh = addthis_share($article->title, 'Shared an article', 'list', $url_blog);

				$article_attachment = json_decode($article->article_attachment);
				if (isset($article_attachment->file_name) && $article_attachment->file_name != '' && file_exists('images/article/' . $article_attachment->path_name)) {
					$path_parts = pathinfo($article_attachment->file_name);
					$img = '<img src="' . base_url() . 'images/icons/' . file_icon($path_parts['extension']) . '" class="bookThumb">';
				} else {
					$img = '<img src="' . base_url() . 'images/noattachments.gif" class="bookThumb">';
				}
				if (isset($article->first_name) && !empty($article->first_name))
					$authorName = "~~" . $article->first_name . ' ' . $article->last_name;
				/* Added Gauttam on 30th Aug 2014, Decrease Size of fonts and style for larger title content*/
				$styleTitle = "style='height:80px;'";
				if (strlen($article->title) > 30)
					$styleTitle = "style='height:80px;'";
				if (strlen($article->title) > 75)
					$article->title = substr($article->title, 0, 75) . "...";
				/* Added Gauttam on 30th Aug 2014, Decrease Size of fonts and style for larger title content*/
//				echo '<div rel="'. $article->id .'" class="newsPrev">
//				  '.$img.' <div class="heading55 redirect_blog">
//				  <h5>' . $article->title. '</h5>
//				  <div class="newsauhtor">'.$authorName.'</div>
//				  <div class="time2">
//				  <p>'.date('F j, Y',strtotime($article->added_date)).'</p>
//				  </div></div>
//				 </div>';
				echo '<div class="row gutters list-row newslist">
				  <div class="col span_2 list-thumpnail"></div>
					<div class="col span_10 list-row-details " rel ="' . $article->id . '">
					  <span class="list-row-title redirect">' . $article->title . '</span><br />
					  <div class="time2">
						<p>' . date('F j, Y', strtotime($article->added_date)) . '</p>
					  </div>
					</div>
				</div>';
				/* echo '<div class="feed news1 display">

			 <div class="expandNews">

			 <div class="feedActivity">

				<div class="imgNews">
					' . $posted_by . '
					<p>' . date('M d Y', strtotime($bro_gmt_diff_mins . " minutes", strtotime($article->added_date))) . '</p>
					<p>' . date('h:i A', strtotime($bro_gmt_diff_mins . " minutes", strtotime($article->added_date))) . '</p>
				</div>

				<p class="feedMessage"><a class="short_desc" href="' . base_url() . 'blog/index/act/blog_detail/id/' . $article->id . '"><span class="newsHeading">' . $article->title . '</span> <div class="feeddetails">' . $message . '</div></a></p>


			 </div>
			 </div>
			  ' . $comment . '
			  <div class="feedActions">
				  <ul>
					<li>
					<a href="#" class="like_unlike" id="like" value="' . $item . '" >' . $like_unlike . '</a>
					</li>
					<li><a href="#" class="user_forward" id="user_forward"  >Share</a></li>
					<li>
						<a href="#" class="user_favourite" id="user_favourite" style="' . $style . '" value="' . $item . '" >' . $text_var . '</a>
					</li>
					<li>' . $addthis_sh . '</li>
					</ul>
				<p class="time">' . $time . '</p>
				</div>
				<div class="shareThis" id="slidepanel" style="clear:both;">' . form_input(array(
					'name' => 'forward_email',
					'id' => 'forward_email',
					'placeholder' => 'Email',
					'class' => 'input-xlarge'
				)) . '
					<input type="submit" value=" Forward "  class="btn_user_forward submit1" id="btn_user_forward" />

					<input type="hidden" name="item_type" value="' . $item_type . '" />
					<input type="hidden" name="item_id" value="' . $item_id . '" />
				</div>
				<div class = "email_check" id="email_check"></div>

			</div>	'; */
			}

		}

	}

	function del_image($id = '')
	{
		$this->load->model('news_model', 'newsobj');
		$whr['id'] = $id;
		$res = $this->newsobj->get_news(1, 0, $whr);
		if ($res[0]->user_id == $this->user_id) {
			if ($res[0]->image != "")
				unlink('images/news/' . $res[0]->image);
			$data['image'] = '';
			$this->newsobj->update_news($data, $id);
		}
		$this->add($id);
	}

	function delete($id = '')
	{
		$this->load->model('news_model', 'newsobj');
		$whr['id'] = $id;
		$res = $this->newsobj->get_news(1, 0, $whr);
		if ($res[0]->user_id == $this->user_id) {
			if ($res[0]->image != "")
				unlink('images/news/' . $res[0]->image);
			$data['image'] = '';
			$this->newsobj->delete_news($id);
			$error = '<p class="succ" style="font-size: 0.7em;padding-left: 20%;">News deleted successfully</p>';
			$this->session->set_userdata('VALIDATION_ERRORS', $error);
			$this->load->driver('cache');
			$this->cache->clean();
			redirect('news');
		} else {
			echo 'Invalid user login';
		}

	}

	function news_more($category = '')
	{
		$where['category'] = $category;
		$news_res = $this->newsobj->get_today_news($this->recs_per_page, '0', $where);
		$i = 0;
		$where1['user_id'] = $this->user_id;
		$news_result = '';
		foreach ($news_res as $row) {
			$news_result[$i] = $row;
			$where1['type'] = 'news';
			$where1['solution_id'] = $row->news_id;
			$res_like = $this->usersobj->check_user_like($where1);
			$res_fav = $this->usersobj->check_user_favourite($where1);
			if ($res_like)
				$news_result[$i]->like_unlike = 1;
			else
				$news_result[$i]->like_unlike = 0;
			if ($res_fav)
				$news_result[$i]->favourite = 1;
			else
				$news_result[$i]->favourite = 0;
			$i++;
		}
		$data['news_res'] = $news_result;
		$data['total_news_res'] = count($this->newsobj->get_today_news('', '', $where));
		$data['recs_per_page'] = $this->recs_per_page;
		$data['user_id'] = $this->user_id;
		$data['category'] = $category;
		$this->load->view('header', $data);
		$this->load->view("news_more", $data);
		$this->load->view('footer');
	}

	function blog_more($search = '')
	{
		$this->load->model('blog_model', 'blogobj');
		$blog_where['approved'] = 1;
		$blog_res = $this->blogobj->get_blog($this->recs_per_page, '0', $blog_where);
		$i = 0;
		$where2['user_id'] = $this->user_id;
		$blog_result = '';
		foreach ($blog_res as $row) {
			$blog_result[$i] = $row;
			$where2['type'] = 'blog';
			$where2['solution_id'] = $row->id;
			$res_like = $this->usersobj->check_user_like($where2);
			$res_fav = $this->usersobj->check_user_favourite($where2);
			if ($res_like)
				$blog_result[$i]->like_unlike = 1;
			else
				$blog_result[$i]->like_unlike = 0;
			if ($res_fav)
				$blog_result[$i]->favourite = 1;
			else
				$blog_result[$i]->favourite = 0;
			$i++;
		}
		$data['blog_res'] = $blog_result;
		$data['total_blog_res'] = count($this->blogobj->get_blog('', '', $blog_where));
		$data['recs_per_page'] = $this->recs_per_page;
		$data['user_id'] = $this->user_id;
		$this->load->view('header', $data);
		$this->load->view("blog_more", $data);
		$this->load->view('footer');
	}

	function artilce_more()
	{
		$this->load->model('article_model', 'artobj');
		$article_where['approved'] = 1;
		$article_res = $this->artobj->get_article($this->recs_per_page, '0', $article_where);
		$i = 0;
		$where3['user_id'] = $this->user_id;
		$article_result = '';
		foreach ($article_res as $row) {
			$article_result[$i] = $row;
			$where3['type'] = 'article';
			$where3['solution_id'] = $row->id;
			$res_like = $this->usersobj->check_user_like($where3);
			$res_fav = $this->usersobj->check_user_favourite($where3);
			if ($res_like)
				$article_result[$i]->like_unlike = 1;
			else
				$article_result[$i]->like_unlike = 0;
			if ($res_fav)
				$article_result[$i]->favourite = 1;
			else
				$article_result[$i]->favourite = 0;
			$i++;
		}
		$data['article_res'] = $article_result;
		$data['total_article_res'] = count($this->artobj->get_article('', '', $article_where));
		$data['recs_per_page'] = $this->recs_per_page;
		$data['user_id'] = $this->user_id;
		$this->load->view('header', $data);
		$this->load->view("article_more", $data);
		$this->load->view('footer');
	}


	function loadmore()
	{
		$this->load->model('news_model', 'newsobj');
		$this->load->model('Users_model', 'usersobj');
		$this->load->model('conference_model', 'conferenceobj');


		/* Added by BHI on 04-10-2016 */

		$offset = (isset($_GET['offset']) ? $_GET['offset'] : "");
		$limit = (isset($_GET['limit']) ? $_GET['limit'] : "");
		$category = (isset($_GET['category']) ? $_GET['category'] : "");


		if ($category == "latest_news") {

			$getlatest_newsall = $this->newsobj->get_news('', '', '', "news.id", "asc");
			$latestnews_count = count($getlatest_newsall);

			if ($latestnews_count == $offset) {
				$offset = 0;
			} else {
				$offset = $offset + 10;
			}

			$getlatest_news = $this->newsobj->get_news($limit, $offset, '', "news.id", "desc");


			$newsall = array();
			foreach ($getlatest_news as $news) {
				if (isset($news->image) && (trim($news->image) != "") && file_exists('images/news/' . $news->image)) {
					$image = $news->image;
				} else {
					$image = "";
				}

				$description = strip_tags(substr($news->description, 0, 100));

				$result = array(
					'id' => $news->id,
					'news_title' => $news->news_title,
					'image' => $image,
					'description' => $description
				);

				array_push($newsall, $result);
			}

			$data['offset'] = $offset;


			echo json_encode(array('data' => $newsall, 'offset' => $offset));
			exit;

		}


	}

	//Added by vikas on 14-oct-2016
	function all_reports($featured = '')
	{
		//echo $featured; exit;
		$this->load->model('news_model', 'newsobj');
		$this->load->model('Users_model', 'usersobj');
		$this->load->model('conference_model', 'conferenceobj');
		$this->load->model('article_model', 'artobj');
		if ($featured != 1) {
			$article_where['approved'] = 1;
			$article_where['search'] = $search;
			$article_res = $this->artobj->get_article($this->recs_per_article, '0', $article_where);
			$i = 0;
			$where3['user_id'] = $this->user_id;
			$article_result = '';
			foreach ($article_res as $row) {
				$article_result[$i] = $row;
				$where3['type'] = 'article';
				$where3['solution_id'] = $row->id;
				$res_like = $this->usersobj->check_user_like($where3);
				$res_fav = $this->usersobj->check_user_favourite($where3);
				if ($res_like)
					$article_result[$i]->like_unlike = 1;
				else
					$article_result[$i]->like_unlike = 0;
				if ($res_fav)
					$article_result[$i]->favourite = 1;
				else
					$article_result[$i]->favourite = 0;
				$i++;
			}
			$data['article_res'] = $article_result;
			$data['recs_per_article'] = $this->recs_per_article;
			$data['total_article_res'] = count($this->artobj->get_article('', '', $article_where));
			$data['page_title'] = 'User:News List';
			$data['show_menu'] = 1;
			$data['action'] = '';
			$data['base_url'] = $this->config->item('base_url');
			$data['user_id'] = $this->user_id;

			//loading categories
			$this->load->model('news_categorys_model', 'news_catobj');
			$news_cat_res = $this->news_catobj->load_news_categories();
			$categories[''] = '-----Select Category------';
			if ($news_cat_res) {
				foreach ($news_cat_res as $category) {
					$categories[$category->id] = $category->news_category;
				}
			}

			$this->load->library('fckeditor');
			$this->load->view('cleantek_new_header', $data);
			$this->load->view("all_reports", $data);
			$this->load->view('cleantek_new_footer');
		} else {

			$data['article_res'] = $this->artobj->get_major_reports();

			//array_push($data['get_major_reports'],$featured);
			$this->load->library('fckeditor');
			$this->load->view('cleantek_new_header', $data);
			$this->load->view("all_reports", $data);
			$this->load->view('cleantek_new_footer');


		}

	}
//Added by vikas on 14-oct-2016 


}
