Content-Type: text/x-zim-wiki
Wiki-Format: zim 0.4
Creation-Date: 2017-05-30T11:02:10+03:00

			$this->showDebugInfo($ret, ' -1 $ret::');
			$this->showDebugInfo($latestResultsArray, ' -2 $latestResultsArray::');
