Content-Type: text/x-zim-wiki
Wiki-Format: zim 0.4
Creation-Date: 2017-01-14T07:15:25+02:00

return array(
	'AF' => __( 'Afghanistan', 'woocommerce' ),
	'AX' => __( '&#197;land Islands', 'woocommerce' ),
	'AL' => __( 'Albania', 'woocommerce' ),
	'DZ' => __( 'Algeria', 'woocommerce' ),
	'AD' => __( 'Andorra', 'woocommerce' ),
	'AO' => __( 'Angola', 'woocommerce' ),
	'AI' => __( 'Anguilla', 'woocommerce' ),
	'AQ' => __( 'Antarctica', 'woocommerce' ),
	'AG' => __( 'Antigua and Barbuda', 'woocommerce' ),
	'AR' => __( 'Argentina', 'woocommerce' ),
	'AM' => __( 'Armenia', 'woocommerce' ),
	'AW' => __( 'Aruba', 'woocommerce' ),
	'AU' => __( 'Australia', 'woocommerce' ),
	'AT' => __( 'Austria', 'woocommerce' ),
	'AZ' => __( 'Azerbaijan', 'woocommerce' ),
	'BS' => __( 'Bahamas', 'woocommerce' ),
	'BH' => __( 'Bahrain', 'woocommerce' ),
	'BD' => __( 'Bangladesh', 'woocommerce' ),
	'BB' => __( 'Barbados', 'woocommerce' ),
	'BY' => __( 'Belarus', 'woocommerce' ),
	'BE' => __( 'Belgium', 'woocommerce' ),
	'PW' => __( 'Belau', 'woocommerce' ),
	'BZ' => __( 'Belize', 'woocommerce' ),
	'BJ' => __( 'Benin', 'woocommerce' ),
	'BM' => __( 'Bermuda', 'woocommerce' ),
	'BT' => __( 'Bhutan', 'woocommerce' ),
	'BO' => __( 'Bolivia', 'woocommerce' ),
	'BQ' => __( 'Bonaire, Saint Eustatius and Saba', 'woocommerce' ),
	'BA' => __( 'Bosnia and Herzegovina', 'woocommerce' ),
	'BW' => __( 'Botswana', 'woocommerce' ),
	'BV' => __( 'Bouvet Island', 'woocommerce' ),
	'BR' => __( 'Brazil', 'woocommerce' ),
	'IO' => __( 'British Indian Ocean Territory', 'woocommerce' ),
	'VG' => __( 'British Virgin Islands', 'woocommerce' ),
	'BN' => __( 'Brunei', 'woocommerce' ),
	'BG' => __( 'Bulgaria', 'woocommerce' ),
	'BF' => __( 'Burkina Faso', 'woocommerce' ),
	'BI' => __( 'Burundi', 'woocommerce' ),
	'KH' => __( 'Cambodia', 'woocommerce' ),
	'CM' => __( 'Cameroon', 'woocommerce' ),
	'CA' => __( 'Canada', 'woocommerce' ),
	'CV' => __( 'Cape Verde', 'woocommerce' ),
	'KY' => __( 'Cayman Islands', 'woocommerce' ),
	'CF' => __( 'Central African Republic', 'woocommerce' ),
	'TD' => __( 'Chad', 'woocommerce' ),
	'CL' => __( 'Chile', 'woocommerce' ),
	'CN' => __( 'China', 'woocommerce' ),
	'CX' => __( 'Christmas Island', 'woocommerce' ),
	'CC' => __( 'Cocos (Keeling) Islands', 'woocommerce' ),
	'CO' => __( 'Colombia', 'woocommerce' ),
	'KM' => __( 'Comoros', 'woocommerce' ),
	'CG' => __( 'Congo (Brazzaville)', 'woocommerce' ),
	'CD' => __( 'Congo (Kinshasa)', 'woocommerce' ),
	'CK' => __( 'Cook Islands', 'woocommerce' ),
	'CR' => __( 'Costa Rica', 'woocommerce' ),
	'HR' => __( 'Croatia', 'woocommerce' ),
	'CU' => __( 'Cuba', 'woocommerce' ),
	'CW' => __( 'Cura&Ccedil;ao', 'woocommerce' ),
	'CY' => __( 'Cyprus', 'woocommerce' ),
	'CZ' => __( 'Czech Republic', 'woocommerce' ),
	'DK' => __( 'Denmark', 'woocommerce' ),
	'DJ' => __( 'Djibouti', 'woocommerce' ),
	'DM' => __( 'Dominica', 'woocommerce' ),
	'DO' => __( 'Dominican Republic', 'woocommerce' ),
	'EC' => __( 'Ecuador', 'woocommerce' ),
	'EG' => __( 'Egypt', 'woocommerce' ),
	'SV' => __( 'El Salvador', 'woocommerce' ),
	'GQ' => __( 'Equatorial Guinea', 'woocommerce' ),
	'ER' => __( 'Eritrea', 'woocommerce' ),
	'EE' => __( 'Estonia', 'woocommerce' ),
	'ET' => __( 'Ethiopia', 'woocommerce' ),
	'FK' => __( 'Falkland Islands', 'woocommerce' ),
	'FO' => __( 'Faroe Islands', 'woocommerce' ),
	'FJ' => __( 'Fiji', 'woocommerce' ),
	'FI' => __( 'Finland', 'woocommerce' ),
	'FR' => __( 'France', 'woocommerce' ),
	'GF' => __( 'French Guiana', 'woocommerce' ),
	'PF' => __( 'French Polynesia', 'woocommerce' ),
	'TF' => __( 'French Southern Territories', 'woocommerce' ),
	'GA' => __( 'Gabon', 'woocommerce' ),
	'GM' => __( 'Gambia', 'woocommerce' ),
	'GE' => __( 'Georgia', 'woocommerce' ),
	'DE' => __( 'Germany', 'woocommerce' ),
	'GH' => __( 'Ghana', 'woocommerce' ),
	'GI' => __( 'Gibraltar', 'woocommerce' ),
	'GR' => __( 'Greece', 'woocommerce' ),
	'GL' => __( 'Greenland', 'woocommerce' ),
	'GD' => __( 'Grenada', 'woocommerce' ),
	'GP' => __( 'Guadeloupe', 'woocommerce' ),
	'GT' => __( 'Guatemala', 'woocommerce' ),
	'GG' => __( 'Guernsey', 'woocommerce' ),
	'GN' => __( 'Guinea', 'woocommerce' ),
	'GW' => __( 'Guinea-Bissau', 'woocommerce' ),
	'GY' => __( 'Guyana', 'woocommerce' ),
	'HT' => __( 'Haiti', 'woocommerce' ),
	'HM' => __( 'Heard Island and McDonald Islands', 'woocommerce' ),
	'HN' => __( 'Honduras', 'woocommerce' ),
	'HK' => __( 'Hong Kong', 'woocommerce' ),
	'HU' => __( 'Hungary', 'woocommerce' ),
	'IS' => __( 'Iceland', 'woocommerce' ),
	'IN' => __( 'India', 'woocommerce' ),
	'ID' => __( 'Indonesia', 'woocommerce' ),
	'IR' => __( 'Iran', 'woocommerce' ),
	'IQ' => __( 'Iraq', 'woocommerce' ),
	'IE' => __( 'Republic of Ireland', 'woocommerce' ),
	'IM' => __( 'Isle of Man', 'woocommerce' ),
	'IL' => __( 'Israel', 'woocommerce' ),
	'IT' => __( 'Italy', 'woocommerce' ),
	'CI' => __( 'Ivory Coast', 'woocommerce' ),
	'JM' => __( 'Jamaica', 'woocommerce' ),
	'JP' => __( 'Japan', 'woocommerce' ),
	'JE' => __( 'Jersey', 'woocommerce' ),
	'JO' => __( 'Jordan', 'woocommerce' ),
	'KZ' => __( 'Kazakhstan', 'woocommerce' ),
	'KE' => __( 'Kenya', 'woocommerce' ),
	'KI' => __( 'Kiribati', 'woocommerce' ),
	'KW' => __( 'Kuwait', 'woocommerce' ),
	'KG' => __( 'Kyrgyzstan', 'woocommerce' ),
	'LA' => __( 'Laos', 'woocommerce' ),
	'LV' => __( 'Latvia', 'woocommerce' ),
	'LB' => __( 'Lebanon', 'woocommerce' ),
	'LS' => __( 'Lesotho', 'woocommerce' ),
	'LR' => __( 'Liberia', 'woocommerce' ),
	'LY' => __( 'Libya', 'woocommerce' ),
	'LI' => __( 'Liechtenstein', 'woocommerce' ),
	'LT' => __( 'Lithuania', 'woocommerce' ),
	'LU' => __( 'Luxembourg', 'woocommerce' ),
	'MO' => __( 'Macao S.A.R., China', 'woocommerce' ),
	'MK' => __( 'Macedonia', 'woocommerce' ),
	'MG' => __( 'Madagascar', 'woocommerce' ),
	'MW' => __( 'Malawi', 'woocommerce' ),
	'MY' => __( 'Malaysia', 'woocommerce' ),
	'MV' => __( 'Maldives', 'woocommerce' ),
	'ML' => __( 'Mali', 'woocommerce' ),
	'MT' => __( 'Malta', 'woocommerce' ),
	'MH' => __( 'Marshall Islands', 'woocommerce' ),
	'MQ' => __( 'Martinique', 'woocommerce' ),
	'MR' => __( 'Mauritania', 'woocommerce' ),
	'MU' => __( 'Mauritius', 'woocommerce' ),
	'YT' => __( 'Mayotte', 'woocommerce' ),
	'MX' => __( 'Mexico', 'woocommerce' ),
	'FM' => __( 'Micronesia', 'woocommerce' ),
	'MD' => __( 'Moldova', 'woocommerce' ),
	'MC' => __( 'Monaco', 'woocommerce' ),
	'MN' => __( 'Mongolia', 'woocommerce' ),
	'ME' => __( 'Montenegro', 'woocommerce' ),
	'MS' => __( 'Montserrat', 'woocommerce' ),
	'MA' => __( 'Morocco', 'woocommerce' ),
	'MZ' => __( 'Mozambique', 'woocommerce' ),
	'MM' => __( 'Myanmar', 'woocommerce' ),
	'NA' => __( 'Namibia', 'woocommerce' ),
	'NR' => __( 'Nauru', 'woocommerce' ),
	'NP' => __( 'Nepal', 'woocommerce' ),
	'NL' => __( 'Netherlands', 'woocommerce' ),
	'AN' => __( 'Netherlands Antilles', 'woocommerce' ),
	'NC' => __( 'New Caledonia', 'woocommerce' ),
	'NZ' => __( 'New Zealand', 'woocommerce' ),
	'NI' => __( 'Nicaragua', 'woocommerce' ),
	'NE' => __( 'Niger', 'woocommerce' ),
	'NG' => __( 'Nigeria', 'woocommerce' ),
	'NU' => __( 'Niue', 'woocommerce' ),
	'NF' => __( 'Norfolk Island', 'woocommerce' ),
	'KP' => __( 'North Korea', 'woocommerce' ),
	'NO' => __( 'Norway', 'woocommerce' ),
	'OM' => __( 'Oman', 'woocommerce' ),
	'PK' => __( 'Pakistan', 'woocommerce' ),
	'PS' => __( 'Palestinian Territory', 'woocommerce' ),
	'PA' => __( 'Panama', 'woocommerce' ),
	'PG' => __( 'Papua New Guinea', 'woocommerce' ),
	'PY' => __( 'Paraguay', 'woocommerce' ),
	'PE' => __( 'Peru', 'woocommerce' ),
	'PH' => __( 'Philippines', 'woocommerce' ),
	'PN' => __( 'Pitcairn', 'woocommerce' ),
	'PL' => __( 'Poland', 'woocommerce' ),
	'PT' => __( 'Portugal', 'woocommerce' ),
	'QA' => __( 'Qatar', 'woocommerce' ),
	'RE' => __( 'Reunion', 'woocommerce' ),
	'RO' => __( 'Romania', 'woocommerce' ),
	'RU' => __( 'Russia', 'woocommerce' ),
	'RW' => __( 'Rwanda', 'woocommerce' ),
	'BL' => __( 'Saint Barth&eacute;lemy', 'woocommerce' ),
	'SH' => __( 'Saint Helena', 'woocommerce' ),
	'KN' => __( 'Saint Kitts and Nevis', 'woocommerce' ),
	'LC' => __( 'Saint Lucia', 'woocommerce' ),
	'MF' => __( 'Saint Martin (French part)', 'woocommerce' ),
	'SX' => __( 'Saint Martin (Dutch part)', 'woocommerce' ),
	'PM' => __( 'Saint Pierre and Miquelon', 'woocommerce' ),
	'VC' => __( 'Saint Vincent and the Grenadines', 'woocommerce' ),
	'SM' => __( 'San Marino', 'woocommerce' ),
	'ST' => __( 'S&atilde;o Tom&eacute; and Pr&iacute;ncipe', 'woocommerce' ),
	'SA' => __( 'Saudi Arabia', 'woocommerce' ),
	'SN' => __( 'Senegal', 'woocommerce' ),
	'RS' => __( 'Serbia', 'woocommerce' ),
	'SC' => __( 'Seychelles', 'woocommerce' ),
	'SL' => __( 'Sierra Leone', 'woocommerce' ),
	'SG' => __( 'Singapore', 'woocommerce' ),
	'SK' => __( 'Slovakia', 'woocommerce' ),
	'SI' => __( 'Slovenia', 'woocommerce' ),
	'SB' => __( 'Solomon Islands', 'woocommerce' ),
	'SO' => __( 'Somalia', 'woocommerce' ),
	'ZA' => __( 'South Africa', 'woocommerce' ),
	'GS' => __( 'South Georgia/Sandwich Islands', 'woocommerce' ),
	'KR' => __( 'South Korea', 'woocommerce' ),
	'SS' => __( 'South Sudan', 'woocommerce' ),
	'ES' => __( 'Spain', 'woocommerce' ),
	'LK' => __( 'Sri Lanka', 'woocommerce' ),
	'SD' => __( 'Sudan', 'woocommerce' ),
	'SR' => __( 'Suriname', 'woocommerce' ),
	'SJ' => __( 'Svalbard and Jan Mayen', 'woocommerce' ),
	'SZ' => __( 'Swaziland', 'woocommerce' ),
	'SE' => __( 'Sweden', 'woocommerce' ),
	'CH' => __( 'Switzerland', 'woocommerce' ),
	'SY' => __( 'Syria', 'woocommerce' ),
	'TW' => __( 'Taiwan', 'woocommerce' ),
	'TJ' => __( 'Tajikistan', 'woocommerce' ),
	'TZ' => __( 'Tanzania', 'woocommerce' ),
	'TH' => __( 'Thailand', 'woocommerce' ),
	'TL' => __( 'Timor-Leste', 'woocommerce' ),
	'TG' => __( 'Togo', 'woocommerce' ),
	'TK' => __( 'Tokelau', 'woocommerce' ),
	'TO' => __( 'Tonga', 'woocommerce' ),
	'TT' => __( 'Trinidad and Tobago', 'woocommerce' ),
	'TN' => __( 'Tunisia', 'woocommerce' ),
	'TR' => __( 'Turkey', 'woocommerce' ),
	'TM' => __( 'Turkmenistan', 'woocommerce' ),
	'TC' => __( 'Turks and Caicos Islands', 'woocommerce' ),
	'TV' => __( 'Tuvalu', 'woocommerce' ),
	'UG' => __( 'Uganda', 'woocommerce' ),
	'UA' => __( 'Ukraine', 'woocommerce' ),
	'AE' => __( 'United Arab Emirates', 'woocommerce' ),
	'GB' => __( 'United Kingdom (UK)', 'woocommerce' ),
	'US' => __( 'United States (US)', 'woocommerce' ),
	'UY' => __( 'Uruguay', 'woocommerce' ),
	'UZ' => __( 'Uzbekistan', 'woocommerce' ),
	'VU' => __( 'Vanuatu', 'woocommerce' ),
	'VA' => __( 'Vatican', 'woocommerce' ),
	'VE' => __( 'Venezuela', 'woocommerce' ),
	'VN' => __( 'Vietnam', 'woocommerce' ),
	'WF' => __( 'Wallis and Futuna', 'woocommerce' ),
	'EH' => __( 'Western Sahara', 'woocommerce' ),
	'WS' => __( 'Western Samoa', 'woocommerce' ),
	'YE' => __( 'Yemen', 'woocommerce' ),
	'ZM' => __( 'Zambia', 'woocommerce' ),
	'ZW' => __( 'Zimbabwe', 'woocommerce' )
);






	WORLD
	------------------------------
	AE = United Arab Emirates
	AF = Afghanistan
	AG = Antigua and Barbuda
	AL = Albania
	AM = Armenia
	AO = Angola
	AR = Argentina
	AT = Austria
	AU = Australia
	AZ = Azerbaijan
	BA = Bosnia and Herzegovina
	BB = Barbados
	BD = Bangladesh
	BE = Belgium
	BF = Burkina Faso
	BG = Bulgaria
	BI = Burundi
	BJ = Benin
	BN = Brunei Darussalam
	BO = Bolivia
	BR = Brazil
	BS = Bahamas
	BT = Bhutan
	BW = Botswana
	BY = Belarus
	BZ = Belize
	CA = Canada
	CD = Congo
	CF = Central African Republic
	CG = Congo
	CH = Switzerland
	CI = Cote d'Ivoire
	CL = Chile
	CM = Cameroon
	CN = China
	CO = Colombia
	CR = Costa Rica
	CU = Cuba
	CV = Cape Verde
	CY = Cyprus
	CZ = Czech Republic
	DE = Germany
	DJ = Djibouti
	DK = Denmark
	DM = Dominica
	DO = Dominican Republic
	DZ = Algeria
	EC = Ecuador
	EE = Estonia
	EG = Egypt
	ER = Eritrea
	ES = Spain
	ET = Ethiopia
	FI = Finland
	FJ = Fiji
	FK = Falkland Islands
	FR = France
	GA = Gabon
	GB = United Kingdom
	GD = Grenada
	GE = Georgia
	GF = French Guiana
	GH = Ghana
	GL = Greenland
	GM = Gambia
	GN = Guinea
	GQ = Equatorial Guinea
	GR = Greece
	GT = Guatemala
	GW = Guinea-Bissau
	GY = Guyana
	HN = Honduras
	HR = Croatia
	HT = Haiti
	HU = Hungary
	ID = Indonesia
	IE = Ireland
	IL = Israel
	IN = India
	IQ = Iraq
	IR = Iran
	IS = Iceland
	IT = Italy
	JM = Jamaica
	JO = Jordan
	JP = Japan
	KE = Kenya
	KG = Kyrgyz Republic
	KH = Cambodia
	KM = Comoros
	KN = Saint Kitts and Nevis
	KP = North Korea
	KR = South Korea
	KW = Kuwait
	KZ = Kazakhstan
	LA = Lao People's Democratic Republic
	LB = Lebanon
	LC = Saint Lucia
	LK = Sri Lanka
	LR = Liberia
	LS = Lesotho
	LT = Lithuania
	LV = Latvia
	LY = Libya
	MA = Morocco
	MD = Moldova
	MG = Madagascar
	MK = Macedonia
	ML = Mali
	MM = Myanmar
	MN = Mongolia
	MR = Mauritania
	MT = Malta
	MU = Mauritius
	MV = Maldives
	MW = Malawi
	MX = Mexico
	MY = Malaysia
	MZ = Mozambique
	NA = Namibia
	NC = New Caledonia
	NE = Niger
	NG = Nigeria
	NI = Nicaragua
	NL = Netherlands
	NO = Norway
	NP = Nepal
	NZ = New Zealand
	OM = Oman
	PA = Panama
	PE = Peru
	PF = French Polynesia
	PG = Papua New Guinea
	PH = Philippines
	PK = Pakistan
	PL = Poland
	PT = Portugal
	PY = Paraguay
	QA = Qatar
	RE = Reunion
	RO = Romania
	RS = Serbia
	RU = Russian Federationß
	RW = Rwanda
	SA = Saudi Arabia
	SB = Solomon Islands
	SC = Seychelles
	SD = Sudan
	SE = Sweden
	SI = Slovenia
	SK = Slovakia
	SL = Sierra Leone
	SN = Senegal
	SO = Somalia
	SR = Suriname
	ST = Sao Tome and Principe
	SV = El Salvador
	SY = Syrian Arab Republic
	SZ = Swaziland
	TD = Chad
	TG = Togo
	TH = Thailand
	TJ = Tajikistan
	TL = Timor-Leste
	TM = Turkmenistan
	TN = Tunisia
	TR = Turkey
	TT = Trinidad and Tobago
	TW = Taiwan
	TZ = Tanzania
	UA = Ukraine
	UG = Uganda
	US = United States of America
	UY = Uruguay
	UZ = Uzbekistan
	VE = Venezuela
	VN = Vietnam
	VU = Vanuatu
	YE = Yemen
	ZA = South Africa
	ZM = Zambia
	ZW = Zimbabwe
 
	USA
	------------------------------
	AK = Alaska
	AL = Alabama
	AR = Arkansas
	AZ = Arizona
	CA = California
	CO = Colorado
	CT = Connecticut
	DC = District of Columbia
	DE = Delaware
	FL = Florida
	GA = Georgia
	HI = Hawaii
	IA = Iowa
	ID = Idaho
	IL = Illinois
	IN = Indiana
	KS = Kansas
	KY = Kentucky
	LA = Louisiana
	MA = Massachusetts
	MD = Maryland
	ME = Maine
	MI = Michigan
	MN = Minnesota
	MO = Missouri
	MS = Mississippi
	MT = Montana
	NC = North Carolina
	ND = North Dakota
	NE = Nebraska
	NH = New Hampshire
	NJ = New Jersey
	NM = New Mexico
	NV = Nevada
	NY = New York
	OH = Ohio
	OK = Oklahoma
	OR = Oregon
	PA = Pennsylvania
	RI = Rhode Island
	SC = South Carolina
	SD = South Dakota
	TN = Tennessee
	TX = Texas
	UT = Utah
	VA = Virginia
	VT = Vermont
	WA = Washington
	WI = Wisconsin
	WV = West Virginia
	WY = Wyoming
 
	EUROPE
	------------------------------
	AD = Andorra
	AL = Albania
	AM = Armenia
	AT = Austria
	AZ = Azerbaijan
	BA = Bosnia and Herzegovina
	BE = Belgium
	BG = Bulgaria
	BY = Belarus
	CH = Switzerland
	CY = Cyprus
	CZ = Czech Republic
	DE = Germany
	DK = Denmark
	DZ = Algeria
	EE = Estonia
	ES = Spain
	FI = Finland
	FR = France
	GB = United Kingdom
	GE = Georgia
	GL = Greenland
	GR = Greece
	HR = Croatia
	HU = Hungary
	IE = Ireland
	IL = Israel
	IQ = Iraq
	IR = Iran
	IS = Iceland
	IT = Italy
	JO = Jordan
	KZ = Kazakhstan
	LB = Lebanon
	LI = Liechtenstein
	LT = Lithuania
	LU = Luxembourg
	LV = Latvia
	MA = Morocco
	MC = Monaco
	MD = Moldova
	ME = Montenegro
	MK = Macedonia
	MT = Malta
	NL = Netherlands
	NO = Norway
	PL = Poland
	PT = Portugal
	RO = Romania
	RU = Russian Federation
	SA = Saudi Arabia
	SE = Sweden
	SI = Slovenia
	SK = Slovakia
	SM = San Marino
	SR = Suriname
	SY = Syrian Arab Republic
	TM = Turkmenistan
	TN = Tunisia
	TR = Turkey
	UA = Ukraine
 
	GERMANY
	------------------------------
	BB = Brandenburg
	BE = Berlin
	BW = Baden-WÃrttemberg
	BY = Bayern
	HB = Bremen
	HE = Hessen
	HH = Hamburg
	MV = Mecklenburg-Vorpommern
	NI = Niedersachsen
	NW = Nordrhein-Westfalen
	RP = Rheinland-Pfalz
	SH = Schleswig-Holstein
	SL = Saarland
	SN = Sachsen
	ST = Sachsen-Anhalt
	TH = ThÃri

	RUSSIA
	------------------------------
	CH = Chukotka Autonomous Okrug
	KA = Kamchatka Krai
	MA = Magadan Oblast
	SA = Sakha Republic
	AM = Amur Oblast
	PR = Primorsky Krai
	EU = Jewish Autonomous Oblast
	HA = Khabarovsk Krai
	SH = Sakhalin Oblast
	OM = Omsk Oblast
	NV = Novosibirsk Oblast
	AL = Altai Krai
	LT = Altai Republic
	TV = Tuva Republic
	HK = Republic of Khakassia
	KM = Kemerovo Oblast
	TM = Tomsk Oblast
	ZB = Zabaykalsky Krai
	BR = Buryat Republic
	IR = Irkutsk Oblast
	KR = Krasnoyarsk Krai
	YA = Yamalo-Nenets Autonomous Okrug
	HT = Khanty–Mansi Autonomous Okrug
	TU = Tyumen Oblast
	KU = Kurgan Oblast
	CL = Chelyabinsk Oblast
	SV = Sverdlovsk Oblast
	AR = Arkhangelsk Oblast
	NE = Nenets Autonomous Okrug
	KO = Komi Republic
	MU = Murmansk Oblast
	VO = Vologda Oblast
	NO = Novgorod Oblast
	PS = Pskov Oblast
	LE = Leningrad Oblast
	KL = Republic of Karelia
	KN = Kaliningrad Oblast
	DA = Republic of Dagestan
	ST = Stavropol Krai
	SO = Republic of North Ossetia–Alania
	KB = Kabardino-Balkar Republic
	KH = Karachay–Cherkess Republic
	CC = Chechen Republic
	IN = Republic of Ingushetia			
	AD = Republic of Adygea
	KS = Krasnodar Krai
	RO = Rostov Oblast
	KK = Republic of Kalmykia
	AS = Astrakhan Oblast
	VL = Volgograd Oblast
	TR = Tver Oblast
	SM = Smolensk Oblast
	BN = Bryansk Oblast
	KY = Kursk Oblast
	BL = Belgorod Oblast
	OR = Oryol Oblast
	KJ = Kaluga Oblast
	TL = Tula Oblast
	LP = Lipetsk Oblast
	MC = Moscow Oblast
	RZ = Ryazan Oblast
	TB = Tambov Oblast
	VM = Vladimir Oblast
	IV = Ivanovo Oblast
	YR = Yaroslavl Oblast
	KT = Kostroma Oblast
	NN = Nizhny Novgorod Oblast
	MR = Republic of Mordovia
	PZ = Penza Oblast
	SR = Saratov Oblast
	SS = Samara Oblast
	OB = Orenburg Oblast
	BS = Republic of Bashkortostan
	UL = Ulyanovsk Oblast
	CU = Chuvash Republic
	TA = Republic of Tatarstan
	ML = Mari El Republic
	UD = Udmurt Republic
	KI = Kirov Oblast
	PE = Perm Krai
	VN = Voronezh Oblast
